<svg width="128" height="128" viewBox="0 0 128 128" fill="none" xmlns="http://www.w3.org/2000/svg">
<path d="M50.8453 127.93H38.0481C34.3067 127.911 30.7259 126.419 28.0924 123.78C25.459 121.141 23.9885 117.571 24.0042 113.856V88.4417V66.0054C23.9986 65.9276 23.9986 65.8496 24.0042 65.7718V55.5756C24.0042 54.2909 30.7791 47.3416 40.4711 38.6638L41.0239 39.3645C41.3081 39.758 41.6228 40.129 41.9649 40.4741C44.9289 43.2063 48.1025 45.7055 51.4569 47.9489C51.8776 50.1054 52.9058 52.0991 54.4221 53.6985C55.9384 55.2979 57.8805 56.4373 60.0229 56.9844C62.1653 57.5315 64.42 57.4639 66.5252 56.7894C68.6304 56.1149 70.4998 54.8611 71.9161 53.1738C73.3324 51.4865 74.2375 49.4348 74.5264 47.257C74.8153 45.0793 74.476 42.8648 73.5481 40.8709C72.6201 38.8769 71.1415 37.1853 69.284 35.9925C67.4265 34.7996 65.2663 34.1546 63.0543 34.1321C62.3524 34.1358 61.652 34.1984 60.9607 34.319C58.4657 32.624 56.0775 30.7791 53.8093 28.7946C53.6479 28.6303 53.4985 28.4546 53.3624 28.269C53.28 28.1639 53.1977 28.0471 53.1154 27.9537C54.5033 26.7858 55.5854 25.9682 56.5146 25.2557H56.5734C59.7962 22.7563 61.4076 21.495 63.0426 21.495C64.6775 21.495 66.2066 22.6629 69.594 25.3025C80.7798 34.027 101.916 51.5813 101.904 55.5289V113.926C101.92 117.639 100.451 121.207 97.8204 123.846C95.1895 126.484 91.6116 127.978 87.8723 128H76.1102L69.053 102.469C71.743 101.205 73.9196 99.069 75.2245 96.4131C76.5294 93.7572 76.885 90.7393 76.2326 87.8561C75.5803 84.9728 73.9589 82.396 71.6353 80.5495C69.3118 78.7031 66.4244 77.6972 63.4483 77.6972C60.4723 77.6972 57.5849 78.7031 55.2613 80.5495C52.9378 82.396 51.3164 84.9728 50.664 87.8561C50.0117 90.7393 50.3672 93.7572 51.6722 96.4131C52.9771 99.069 55.1537 101.205 57.8437 102.469L50.8453 127.93Z" fill="#FB528D"/>
<path d="M62.0887 49.5539C61.2816 49.5533 60.4924 49.3178 59.8186 48.8765C58.7012 48.129 48.7858 41.5418 45.0807 37.8511C35.6711 28.5075 35.4241 13.6162 44.4926 4.61136C47.9036 1.22431 53.9023 -2.04594 63.0179 1.59806C67.9462 3.56021 73.251 7.34435 78.7791 12.8337C82.5783 16.6062 86.1304 18.4165 89.071 18.1128C91.1235 17.791 92.9636 16.6736 94.1875 15.0061C94.481 14.5552 94.861 14.166 95.3059 13.861C95.7509 13.5559 96.2519 13.3408 96.7806 13.228C97.3092 13.1152 97.855 13.1069 98.3869 13.2036C98.9187 13.3003 99.4262 13.5 99.8803 13.7914C100.334 14.0828 100.726 14.4602 101.034 14.902C101.341 15.3438 101.557 15.8414 101.671 16.3663C101.785 16.8912 101.793 17.4332 101.696 17.9613C101.598 18.4894 101.397 18.9933 101.104 19.4443C99.8345 21.2981 98.183 22.8629 96.2586 24.0348C94.3341 25.2067 92.1808 25.959 89.9414 26.2417C84.3779 26.8374 78.6498 24.2679 72.9569 18.615C68.2521 13.9432 63.7825 10.708 59.948 9.17803C54.5845 7.00565 52.0086 8.71085 50.3149 10.3927C44.4338 16.2324 44.7161 25.9381 50.903 32.0698C53.5612 34.7093 61.4889 40.187 64.3823 42.0674C65.1171 42.555 65.6743 43.2643 65.9716 44.0906C66.269 44.917 66.2907 45.8164 66.0335 46.6559C65.7763 47.4953 65.2539 48.2304 64.5435 48.7523C63.8331 49.2742 62.9724 49.5553 62.0887 49.5539V49.5539Z" fill="#FB528D"/>
</svg>
